{
  "collectionName": "components_editor_items",
  "info": {
    "displayName": "item",
    "icon": "sitemap",
    "description": ""
  },
  "options": {},
  "attributes": {
    "name": {
      "type": "string",
      "required": true,
      "minLength": 2,
      "maxLength": 64
    },
    "file": {
      "type": "media",
      "multiple": false,
      "required": true,
      "allowedTypes": [
        "images"
      ]
    },
    "rarity": {
      "type": "decimal",
      "max": 100,
      "min": 0
    }
  }
}
