{
  "collectionName": "components_formule_features",
  "info": {
    "displayName": "Feature",
    "icon": "align-justify"
  },
  "options": {},
  "attributes": {
    "name": {
      "type": "string"
    },
    "description": {
      "type": "string",
      "required": true
    }
  }
}
